﻿// HSK 3 Standard Course 2012-2021/Lesson 01
周末	zhou1mo4
打算	da3suan5
啊	a5
跟	gen1
一直	yi1zhi2
游戏	you2xi4
作业	zuo4ye4
着急	zhao2//ji2
复习	fu4xi2
南	nan2
南方	nan2fang1
北方	bei3fang1
面包	mian4bao1
带	dai4
地图	di4tu2
搬	ban1
// HSK 3 Standard Course 2012-2021/Lesson 02
腿	tui3
疼	teng2
脚	jiao3
树	shu4
容易	rong2yi4
难	nan2
太太	tai4tai5
秘书	mi4shu1
经理	jing1li3
办公室	ban4gong1shi4
辆	liang4
楼	lou2
拿	na2
把	ba3
伞	san3
胖	pang4
其实	qi2shi2
瘦	shou4
// HSK 3 Standard Course 2012-2021/Lesson 03
还是	hai2shi5
爬山	pa2shan1
小心	xiao3xin5
条	tiao2
裤子	ku4zi5
记得	ji4//de5
衬衫	chen4shan1
元	yuan2
新鲜	xin1xian5
甜	tian2
只	zhi3
放	fang4
饮料	yin3liao4
或者	huo4zhe3
舒服	shu1fu5
花	hua1
绿	lü4
// HSK 3 Standard Course 2012-2021/Lesson 04
比赛	bi3sai4
照片	zhao4pian1
年级	nian2ji2
又	you4
聪明	cong1ming5
热情	re4qing2
努力	nu3li4
总是	zong3shi4
回答	hui2da2
站	zhan4
饿	e4
超市	chao1shi4
蛋糕	dan4gao1
年轻	nian2qing1
认真	ren4zhen1
客人	ke4ren5
// HSK 3 Standard Course 2012-2021/Lesson 05
发烧	fa1shao1
为	wei4
照顾	zhao4gu5
用	yong4
感冒	gan3mao4
季节	ji4jie2
当然	dang1ran2
春天	chun1tian1
草	cao3
夏天	xia4tian1
裙子	qun2zi5
最近	zui4jin4
越	yue4
// HSK 3 Standard Course 2012-2021/Lesson 06
眼睛	yan3jing5
突然	tu1ran2
离开	li2//kai1
清楚	qing1chu5
刚才	gang1cai2
帮忙	bang1//mang2
特别	te4bie2
讲	jiang3
明白	ming2bai5
锻炼	duan4lian4
音乐	yin1yue4
公园	gong1yuan2
聊天	liao2tian1
睡着	shui4zhao2
更	geng4
// HSK 3 Standard Course 2012-2021/Lesson 07
同事	tong2shi4
以前	yi3qian2
银行	yin2hang2
久	jiu3
感兴趣	gan3 xing4qu4
结婚	jie2//hun1
欢迎	huan1ying2
迟到	chi2//dao4
半	ban4
接	jie1
刻	ke4
差	cha4
// HSK 3 Standard Course 2012-2021/Lesson 08
又	you4
满意	man3yi4
电梯	dian4ti1
层	ceng2
害怕	hai4pa4
熊猫	xiong2mao1
见面	jian4//mian4
安静	an1jing4
可乐	ke3le4
一会儿	yi1hui4r5
马上	ma3shang4
洗手间	xi3shou3jian1
老	lao3
几乎	ji1hu1
变化	bian4hua4
健康	jian4kang1
重要	zhong4yao4
// HSK 3 Standard Course 2012-2021/Lesson 09
中文	Zhong1wen2
班	ban1
一样	yi1yang4
最后	zui4hou4
放心	fang4//xin1
一定	yi1ding4
担心	dan1//xin1
比较	bi3jiao4
了解	liao3jie3
先	xian1
中间	zhong1jian1
参加	can1jia1
影响	ying3xiang3
// HSK 3 Standard Course 2012-2021/Lesson 10
个子	ge4zi5
矮	ai3
历史	li4shi3
体育	ti3yu4
数学	shu4xue2
方便	fang1bian4
自行车	zi4xing2che1
骑	qi2
旧	jiu4
换	huan4
地方	di4fang5
中介	zhong1jie4
主要	zhu3yao4
环境	huan2jing4
附近	fu4jin4
// HSK 3 Standard Course 2012-2021/Lesson 11
图书馆	tu2shu1guan3
借	jie4
词典	ci2dian3
还	huan2
灯	deng1
会议	hui4yi4
结束	jie2shu4
忘记	wang4ji4
空调	kong1tiao2
关	guan1
地铁	di4tie3
双	shuang1
筷子	kuai4zi5
啤酒	pi2jiu3
口	kou3
瓶子	ping2zi5
笔记本电脑	bi3ji4ben3 dian4nao3
习惯	xi2guan4
电子邮件	dian4zi3you2jian4
// HSK 3 Standard Course 2012-2021/Lesson 12
太阳	tai4yang2
西	xi1
生气	sheng1//qi4
行李箱	xing2li3xiang1
自己	zi4ji3
包	bao1
发现	fa1xian4
护照	hu4zhao4
起飞	qi3fei1
司机	si1ji1
教	jiao4
画	hua4
需要	xu1yao4
黑板	hei1ban3
// HSK 3 Standard Course 2012-2021/Lesson 13
终于	zhong1yu2
爷爷	ye2ye5
礼物	li3wu4
奶奶	nai3nai5
遇到	yu4//dao4
一边	yi1bian1
过去	guo4qu4
一般	yi1ban1
愿意	yuan4yi5
起来	qi3lai2
应该	ying1gai1
生活	sheng1huo2
校长	xiao4zhang3
坏	huai4
经常	jing1chang2
// HSK 3 Standard Course 2012-2021/Lesson 14
打扫	da3sao3
干净	gan1jing4
然后	ran2hou4
冰箱	bing1xiang1
洗澡	xi3//zao3
节目	jie2mu4
月亮	yue4liang5
像	xiang4
盘子	pan2zi5
刮风	gua1feng1
叔叔	shu1shu5
阿姨	a1yi2
故事	gu4shi5
声音	sheng1yin1
菜单	cai4dan1
简单	jian3dan1
香蕉	xiang1jiao1
// HSK 3 Standard Course 2012-2021/Lesson 15
留学	liu2//xue2
水平	shui3ping2
提高	ti2//gao1
练习	lian4xi2
完成	wan2//cheng2
句子	ju4zi5
其他	qi2ta1
其它	qi2ta1
发	fa1
要求	yao1qiu2
注意	zhu4//yi4
上网	shang4//wang3
除了	chu2le5
新闻	xin1wen2
化	hua1
花	hua1
极	ji2
节日	jie2ri4
举行	ju3xing2
世界	shi4jie4
街道	jie1dao4
各	ge4
文化	wen2hua4
// HSK 3 Standard Course 2012-2021/Lesson 16
城市	cheng2shi4
如果	ru2guo3
认为	ren4wei2
皮鞋	pi2xie2
帽子	mao4zi5
长	zhang3
可爱	ke3ai4
米	mi3
公斤	gong1jin1
鼻子	bi2zi5
头发	tou2fa5
检查	jian3cha2
刷牙	shua1//ya2
关系	guan1xi5
别人	bie2ren5
别人	bie2ren2
词语	ci2yu3
// HSK 3 Standard Course 2012-2021/Lesson 17
请假	qing3//jia4
一共	yi1gong4
邻居	lin2ju1
后来	hou4lai2
爱好	ai4hao4
办法	ban4fa3
饱	bao3
为了	wei4le5
决定	jue2ding4
选择	xuan3ze2
冬	dong1
必须	bi4xu1
根据	gen1ju4
情况	qing2kuang4
口	kou3
渴	ke3
// HSK 3 Standard Course 2012-2021/Lesson 18
向	xiang4
万	wan4
只	zhi1
嘴	zui3
动物	dong4wu4
段	duan4
不但	bu4dan4
而且	er2qie3
有名	you3//ming2
同意	tong2yi4
相信	xiang1xin4
关于	guan1yu2
机会	ji1hui5
国家	guo2jia1
种	zhong3
特点	te4dian3
奇怪	qi2guai4
地	de5
// HSK 3 Standard Course 2012-2021/Lesson 19
耳朵	er3duo5
脸	lian3
短	duan3
马	ma3
张	zhang1
位	wei4
蓝	lan2
秋天	qiu1tian1
过	guo4
鸟	niao3
哭	ku1
黄河	Huang2 He2
船	chuan2
经过	jing1guo4
// HSK 3 Standard Course 2012-2021/Lesson 20
照相机	zhao4xiang4ji1
被	bei4
难过	nan2guo4
东	dong1
信用卡	xin4yong4ka3
关心	guan1xin1
只有	zhi3you3
才	cai2
成绩	cheng2ji4
碗	wan3
分	fen1
解决	jie3jue2
试	shi4
真正	zhen1zheng4
多么	duo1me5
